C:\UFRJ\Lab-Iot\LabIOT_Aula3_Servidor\src\br\ufrj\pesc\labiot\server\InstantMeasure.java
C:\UFRJ\Lab-Iot\LabIOT_Aula3_Servidor\src\br\ufrj\pesc\labiot\server\resources\ObservableResource.java
C:\UFRJ\Lab-Iot\LabIOT_Aula3_Servidor\src\br\ufrj\pesc\labiot\server\EnvironmentSingleton.java
C:\UFRJ\Lab-Iot\LabIOT_Aula3_Servidor\src\br\ufrj\pesc\labiot\server\hardware\LedAdapter.java
C:\UFRJ\Lab-Iot\LabIOT_Aula3_Servidor\src\br\ufrj\pesc\labiot\server\SensorServer.java
C:\UFRJ\Lab-Iot\LabIOT_Aula3_Servidor\src\br\ufrj\pesc\labiot\server\hardware\SensorAdapter.java
C:\UFRJ\Lab-Iot\LabIOT_Aula3_Servidor\src\br\ufrj\pesc\labiot\server\resources\SetupResource.java
